[
    {
        "label": [],
        "bounding_box": [
            0.26785714285714285,
            0.30416666666666664,
            0.6178571428571429,
            0.6770833333333334
        ],
        "key_points": [
            0.26785714285714285,
            0.4125,
            0.35892857142857143,
            0.6770833333333334,
            0.4875,
            0.41458333333333336,
            0.6178571428571429,
            0.5770833333333333,
            0.49107142857142855,
            0.30416666666666664
        ]
    }
]